{
    "name": "Framework",
    "rootNamespace": "",
    "references": [
        "UniTask",
        "UniRx",
        "Zenject"
    ],
    "includePlatforms": [],
    "excludePlatforms": [],
    "allowUnsafeCode": false,
    "overrideReferences": true,
    "precompiledReferences": [
        "Zenject-usage.dll"
    ],
    "autoReferenced": false,
    "defineConstraints": [],
    "versionDefines": [],
    "noEngineReferences": false
}